%YAML 1.1
%TAG !u! tag:unity3d.com,2011:
--- !u!114 &11400000
MonoBehaviour:
  m_ObjectHideFlags: 0
  m_CorrespondingSourceObject: {fileID: 0}
  m_PrefabInstance: {fileID: 0}
  m_PrefabAsset: {fileID: 0}
  m_GameObject: {fileID: 0}
  m_Enabled: 1
  m_EditorHideFlags: 0
  m_Script: {fileID: 11500000, guid: 8024265518201e142a229654918d2f5e, type: 3}
  m_Name: StatTable_1_hour_gameplay
  m_EditorClassIdentifier: 
  dirt:
    name: Dirt
    max: 10
    alert: 3
    decayRate: 15
    value: 0
    initialValue: 5
    currentTimer: 15
  health:
    name: Health
    max: 10
    alert: 3
    decayRate: 30
    value: 3
    initialValue: 5
    currentTimer: 15
  hunger:
    name: Hunger
    max: 10
    alert: 3
    decayRate: 45
    value: 4
    initialValue: 5
    currentTimer: 15
  love:
    name: Love
    max: 10
    alert: 3
    decayRate: 60
    value: 4
    initialValue: 5
    currentTimer: 45
  ticksPerDay: 1200
  levelUpThreshold: 00000000b004000060090000100e0000
