%YAML 1.1
%TAG !u! tag:unity3d.com,2011:
--- !u!181963792 &2655988077585873504
Preset:
  m_ObjectHideFlags: 0
  m_CorrespondingSourceObject: {fileID: 0}
  m_PrefabInstance: {fileID: 0}
  m_PrefabAsset: {fileID: 0}
  m_Name: Sleeping Layer1
  m_TargetType:
    m_NativeTypeID: 114
    m_ManagedTypePPtr: {fileID: 11500000, guid: 5e7ffd9689b68407faf21c9cab9e051b, type: 3}
    m_ManagedTypeFallback: 
  m_Properties:
  - target: {fileID: 0}
    propertyPath: m_Enabled
    value: 1
    objectReference: {fileID: 0}
  - target: {fileID: 0}
    propertyPath: m_EditorHideFlags
    value: 0
    objectReference: {fileID: 0}
  - target: {fileID: 0}
    propertyPath: m_EditorClassIdentifier
    value: 
    objectReference: {fileID: 0}
  - target: {fileID: 0}
    propertyPath: sourceTexture
    value: 
    objectReference: {fileID: 2800000, guid: 90c8d9f30ec6793459016299851e7445, type: 3}
  - target: {fileID: 0}
    propertyPath: colorShiftGradient.key0.r
    value: 1
    objectReference: {fileID: 0}
  - target: {fileID: 0}
    propertyPath: colorShiftGradient.key0.g
    value: 1
    objectReference: {fileID: 0}
  - target: {fileID: 0}
    propertyPath: colorShiftGradient.key0.b
    value: 1
    objectReference: {fileID: 0}
  - target: {fileID: 0}
    propertyPath: colorShiftGradient.key0.a
    value: 1
    objectReference: {fileID: 0}
  - target: {fileID: 0}
    propertyPath: colorShiftGradient.key1.r
    value: 0
    objectReference: {fileID: 0}
  - target: {fileID: 0}
    propertyPath: colorShiftGradient.key1.g
    value: 0
    objectReference: {fileID: 0}
  - target: {fileID: 0}
    propertyPath: colorShiftGradient.key1.b
    value: 0
    objectReference: {fileID: 0}
  - target: {fileID: 0}
    propertyPath: colorShiftGradient.key1.a
    value: 1
    objectReference: {fileID: 0}
  - target: {fileID: 0}
    propertyPath: colorShiftGradient.key2.r
    value: 0
    objectReference: {fileID: 0}
  - target: {fileID: 0}
    propertyPath: colorShiftGradient.key2.g
    value: 0
    objectReference: {fileID: 0}
  - target: {fileID: 0}
    propertyPath: colorShiftGradient.key2.b
    value: 0
    objectReference: {fileID: 0}
  - target: {fileID: 0}
    propertyPath: colorShiftGradient.key2.a
    value: 0
    objectReference: {fileID: 0}
  - target: {fileID: 0}
    propertyPath: colorShiftGradient.key3.r
    value: 0
    objectReference: {fileID: 0}
  - target: {fileID: 0}
    propertyPath: colorShiftGradient.key3.g
    value: 0
    objectReference: {fileID: 0}
  - target: {fileID: 0}
    propertyPath: colorShiftGradient.key3.b
    value: 0
    objectReference: {fileID: 0}
  - target: {fileID: 0}
    propertyPath: colorShiftGradient.key3.a
    value: 0
    objectReference: {fileID: 0}
  - target: {fileID: 0}
    propertyPath: colorShiftGradient.key4.r
    value: 0
    objectReference: {fileID: 0}
  - target: {fileID: 0}
    propertyPath: colorShiftGradient.key4.g
    value: 0
    objectReference: {fileID: 0}
  - target: {fileID: 0}
    propertyPath: colorShiftGradient.key4.b
    value: 0
    objectReference: {fileID: 0}
  - target: {fileID: 0}
    propertyPath: colorShiftGradient.key4.a
    value: 0
    objectReference: {fileID: 0}
  - target: {fileID: 0}
    propertyPath: colorShiftGradient.key5.r
    value: 0
    objectReference: {fileID: 0}
  - target: {fileID: 0}
    propertyPath: colorShiftGradient.key5.g
    value: 0
    objectReference: {fileID: 0}
  - target: {fileID: 0}
    propertyPath: colorShiftGradient.key5.b
    value: 0
    objectReference: {fileID: 0}
  - target: {fileID: 0}
    propertyPath: colorShiftGradient.key5.a
    value: 0
    objectReference: {fileID: 0}
  - target: {fileID: 0}
    propertyPath: colorShiftGradient.key6.r
    value: 0
    objectReference: {fileID: 0}
  - target: {fileID: 0}
    propertyPath: colorShiftGradient.key6.g
    value: 0
    objectReference: {fileID: 0}
  - target: {fileID: 0}
    propertyPath: colorShiftGradient.key6.b
    value: 0
    objectReference: {fileID: 0}
  - target: {fileID: 0}
    propertyPath: colorShiftGradient.key6.a
    value: 0
    objectReference: {fileID: 0}
  - target: {fileID: 0}
    propertyPath: colorShiftGradient.key7.r
    value: 0
    objectReference: {fileID: 0}
  - target: {fileID: 0}
    propertyPath: colorShiftGradient.key7.g
    value: 0
    objectReference: {fileID: 0}
  - target: {fileID: 0}
    propertyPath: colorShiftGradient.key7.b
    value: 0
    objectReference: {fileID: 0}
  - target: {fileID: 0}
    propertyPath: colorShiftGradient.key7.a
    value: 0
    objectReference: {fileID: 0}
  - target: {fileID: 0}
    propertyPath: colorShiftGradient.ctime0
    value: 0
    objectReference: {fileID: 0}
  - target: {fileID: 0}
    propertyPath: colorShiftGradient.ctime1
    value: 65535
    objectReference: {fileID: 0}
  - target: {fileID: 0}
    propertyPath: colorShiftGradient.ctime2
    value: 0
    objectReference: {fileID: 0}
  - target: {fileID: 0}
    propertyPath: colorShiftGradient.ctime3
    value: 0
    objectReference: {fileID: 0}
  - target: {fileID: 0}
    propertyPath: colorShiftGradient.ctime4
    value: 0
    objectReference: {fileID: 0}
  - target: {fileID: 0}
    propertyPath: colorShiftGradient.ctime5
    value: 0
    objectReference: {fileID: 0}
  - target: {fileID: 0}
    propertyPath: colorShiftGradient.ctime6
    value: 0
    objectReference: {fileID: 0}
  - target: {fileID: 0}
    propertyPath: colorShiftGradient.ctime7
    value: 0
    objectReference: {fileID: 0}
  - target: {fileID: 0}
    propertyPath: colorShiftGradient.atime0
    value: 0
    objectReference: {fileID: 0}
  - target: {fileID: 0}
    propertyPath: colorShiftGradient.atime1
    value: 65535
    objectReference: {fileID: 0}
  - target: {fileID: 0}
    propertyPath: colorShiftGradient.atime2
    value: 0
    objectReference: {fileID: 0}
  - target: {fileID: 0}
    propertyPath: colorShiftGradient.atime3
    value: 0
    objectReference: {fileID: 0}
  - target: {fileID: 0}
    propertyPath: colorShiftGradient.atime4
    value: 0
    objectReference: {fileID: 0}
  - target: {fileID: 0}
    propertyPath: colorShiftGradient.atime5
    value: 0
    objectReference: {fileID: 0}
  - target: {fileID: 0}
    propertyPath: colorShiftGradient.atime6
    value: 0
    objectReference: {fileID: 0}
  - target: {fileID: 0}
    propertyPath: colorShiftGradient.atime7
    value: 0
    objectReference: {fileID: 0}
  - target: {fileID: 0}
    propertyPath: colorShiftGradient.m_Mode
    value: 0
    objectReference: {fileID: 0}
  - target: {fileID: 0}
    propertyPath: colorShiftGradient.m_NumColorKeys
    value: 2
    objectReference: {fileID: 0}
  - target: {fileID: 0}
    propertyPath: colorShiftGradient.m_NumAlphaKeys
    value: 2
    objectReference: {fileID: 0}
  - target: {fileID: 0}
    propertyPath: colorShift
    value: 0
    objectReference: {fileID: 0}
  - target: {fileID: 0}
    propertyPath: typeOfDistortion
    value: Horizontal and Vertical Wave
    objectReference: {fileID: 0}
  - target: {fileID: 0}
    propertyPath: opacity
    value: 0.32
    objectReference: {fileID: 0}
  - target: {fileID: 0}
    propertyPath: typeOfBlend
    value: Traditional
    objectReference: {fileID: 0}
  - target: {fileID: 0}
    propertyPath: speed
    value: 2
    objectReference: {fileID: 0}
  - target: {fileID: 0}
    propertyPath: TilesSize.x
    value: 2
    objectReference: {fileID: 0}
  - target: {fileID: 0}
    propertyPath: TilesSize.y
    value: 2
    objectReference: {fileID: 0}
  - target: {fileID: 0}
    propertyPath: ScrollSpeed.x
    value: -0.1
    objectReference: {fileID: 0}
  - target: {fileID: 0}
    propertyPath: ScrollSpeed.y
    value: -0.2
    objectReference: {fileID: 0}
  - target: {fileID: 0}
    propertyPath: amplitude
    value: 2
    objectReference: {fileID: 0}
  - target: {fileID: 0}
    propertyPath: frequency
    value: 0.2
    objectReference: {fileID: 0}
  - target: {fileID: 0}
    propertyPath: scale
    value: 0.1
    objectReference: {fileID: 0}
  - target: {fileID: 0}
    propertyPath: lineWidth
    value: 0.4
    objectReference: {fileID: 0}
  - target: {fileID: 0}
    propertyPath: bloomEffect
    value: 0
    objectReference: {fileID: 0}
  m_ExcludedProperties: []
